%YAML 1.1
%TAG !u! tag:unity3d.com,2011:
--- !u!1045 &1
EditorBuildSettings:
  m_ObjectHideFlags: 0
  serializedVersion: 2
  m_Scenes:
  - enabled: 1
    path: Assets/Scenes/Menu.unity
    guid: cea5f369d0f835748a379c8ca304e79e
  - enabled: 1
    path: Assets/Scenes/Match.unity
    guid: 4539b60a75c82a4429e4761bbcaa086b
